should contain the specified users:
  1: |
    - name: testUser
      sshAuthorizedKeys:
        - cle_ssh_de_test
      sudo: 'ALL: NOPASSWD'
    - name: testUser2
      sshAuthorizedKeys:
        - cle_ssh_de_test2
should have kube-vip configuration:
  1: |
    content: "apiVersion: v1\nkind: Pod\nmetadata:\n  creationTimestamp: null\n  name: kube-vip\n  namespace: kube-system\nspec:\n  priorityClassName: system-node-critical\n  containers:\n  - args:\n    - manager\n    env:\n    - name: vip_arp\n      value: \"true\"\n    - name: vip_leaderelection\n      value: \"true\"\n    - name: cp_enable\n      value: \"true\"\n    - name: address\n      value: \n    - name: vip_interface\n      value: \n    - name: port\n      value: \"6443\"\n    - name: vip_leaseduration\n      value: \"15\"\n    - name: vip_renewdeadline\n      value: \"10\"\n    - name: vip_retryperiod\n      value: \"2\"\n    image: ghcr.io/kube-vip/kube-vip:v0.5.5\n    imagePullPolicy: IfNotPresent\n    name: kube-vip\n    resources: {}\n    securityContext:\n      capabilities:\n        add:\n        - NET_ADMIN\n        - NET_RAW\n        - SYS_TIME\n    volumeMounts:\n    - mountPath: /etc/kubernetes/admin.conf\n      name: kubeconfig\n  hostAliases:\n  - hostnames:\n    - kubernetes\n    ip: 127.0.0.1\n  hostNetwork: true\n  volumes:\n  - hostPath:\n      path: /etc/kubernetes/admin.conf\n      type: FileOrCreate\n    name: kubeconfig\nstatus: {}\n"
    owner: root:root
    path: /etc/kubernetes/manifests/kube-vip.yaml
should set the specified kube-vip version:
  1: |
    - content: "apiVersion: v1\nkind: Pod\nmetadata:\n  creationTimestamp: null\n  name: kube-vip\n  namespace: kube-system\nspec:\n  priorityClassName: system-node-critical\n  containers:\n  - args:\n    - manager\n    env:\n    - name: vip_arp\n      value: \"true\"\n    - name: vip_leaderelection\n      value: \"true\"\n    - name: cp_enable\n      value: \"true\"\n    - name: address\n      value: \n    - name: vip_interface\n      value: \n    - name: port\n      value: \"6443\"\n    - name: vip_leaseduration\n      value: \"15\"\n    - name: vip_renewdeadline\n      value: \"10\"\n    - name: vip_retryperiod\n      value: \"2\"\n    image: ghcr.io/kube-vip/kube-vip:v0.4.4\n    imagePullPolicy: IfNotPresent\n    name: kube-vip\n    resources: {}\n    securityContext:\n      capabilities:\n        add:\n        - NET_ADMIN\n        - NET_RAW\n        - SYS_TIME\n    volumeMounts:\n    - mountPath: /etc/kubernetes/admin.conf\n      name: kubeconfig\n  hostAliases:\n  - hostnames:\n    - kubernetes\n    ip: 127.0.0.1\n  hostNetwork: true\n  volumes:\n  - hostPath:\n      path: /etc/kubernetes/admin.conf\n      type: FileOrCreate\n    name: kubeconfig\nstatus: {}\n"
      owner: root:root
      path: /etc/kubernetes/manifests/kube-vip.yaml
