should contain a KubeadmConfigTemplate matching the template:
  1: |
    template:
      spec:
        files: null
        joinConfiguration:
          nodeRegistration:
            criSocket: /test/socket
            kubeletExtraArgs:
              cloud-provider: external
            name: '{{ ds.meta_data.hostname }}'
        preKubeadmCommands:
          - hostname "{{ ds.meta_data.hostname }}"
          - echo "::1         ipv6-localhost ipv6-loopback" >/etc/hosts
          - echo "127.0.0.1   localhost" >>/etc/hosts
          - echo "127.0.0.1   {{ ds.meta_data.hostname }}" >>/etc/hosts
          - echo "{{ ds.meta_data.hostname }}" >/etc/hostname
should contain the specified users:
  1: |
    - name: testUser
      sshAuthorizedKeys:
        - cle_ssh_de_test
      sudo: 'ALL: NOPASSWD'
    - name: testUser2
      sshAuthorizedKeys:
        - cle_ssh_de_test2
